…
``` r
brfss_df %>%
  filter(year == 2002) %>%
  separate(locationdesc, into = c("state", "county", convert = TRUE)) %>%
  group_by(state, county)  %>%
  distinct(county, .keep_all = TRUE)
```

    ## Warning: Expected 3 pieces. Additional pieces discarded in 65 rows [26, 27, 28,
    ## 29, 30, 56, 67, 68, 69, 70, 71, 72, 73, 74, 75, 91, 92, 93, 94, 95, ...].

    ## # A tibble: 155 × 25
    ## # Groups:   state, county [155]
    ##     year locationabbr state county    `TRUE`       class topic question response
    ##    <int> <chr>        <chr> <chr>     <chr>        <chr> <chr> <chr>    <fct>   
    ##  1  2002 AL           AL    Jefferson County       Heal… Over… How is … Excelle…
    ##  2  2002 AK           AK    Anchorage Municipality Heal… Over… How is … Excelle…
    ##  3  2002 AZ           AZ    Maricopa  County       Heal… Over… How is … Excelle…
    ##  4  2002 AR           AR    Pulaski   County       Heal… Over… How is … Very go…
    ##  5  2002 AZ           AZ    Pima      County       Heal… Over… How is … Excelle…
    ##  6  2002 CA           CA    Los       Angeles      Heal… Over… How is … Excelle…
    ##  7  2002 CO           CO    Adams     County       Heal… Over… How is … Excelle…
    ##  8  2002 CT           CT    Fairfield County       Heal… Over… How is … Very go…
    ##  9  2002 CO           CO    Arapahoe  County       Heal… Over… How is … Excelle…
    ## 10  2002 CO           CO    Denver    County       Heal… Over… How is … Excelle…
    ## # … with 145 more rows, and 16 more variables: sample_size <int>,
    ## #   data_value <dbl>, confidence_limit_low <dbl>, confidence_limit_high <dbl>,
    ## #   display_order <int>, data_value_unit <chr>, data_value_type <chr>,
    ## #   data_value_footnote_symbol <chr>, data_value_footnote <chr>,
    ## #   data_source <chr>, class_id <chr>, topic_id <chr>, location_id <chr>,
    ## #   question_id <chr>, respid <chr>, geo_location <chr>
…
    ## Warning: Expected 3 pieces. Additional pieces discarded in 180 rows [51, 52, 53,
    ## 54, 55, 56, 57, 58, 59, 60, 81, 82, 83, 84, 85, 86, 87, 88, 89, 90, ...].

    ## # A tibble: 296 × 25
    ## # Groups:   state, county [296]
    ##     year locationabbr state county     `TRUE` class         topic question response
    ##    <int> <chr>        <chr> <chr>      <chr>  <chr>         <chr> <chr>    <fct>   
    ##  1  2010 AL           AL    Jefferson  County Health Status Over… How is … Excelle…
    ##  2  2010 AL           AL    Mobile     County Health Status Over… How is … Excelle…
    ##  3  2010 AL           AL    Tuscaloosa County Health Status Over… How is … Excelle…
    ##  4  2010 AZ           AZ    Maricopa   County Health Status Over… How is … Excelle…
    ##  5  2010 AZ           AZ    Pinal      County Health Status Over… How is … Excelle…
    ##  6  2010 AZ           AZ    Pima       County Health Status Over… How is … Excelle…
    ##  7  2010 AR           AR    Benton     County Health Status Over… How is … Excelle…
    ##  8  2010 AR           AR    Pulaski    County Health Status Over… How is … Excelle…
    ##  9  2010 AR           AR    Washington County Health Status Over… How is … Excelle…
    ## 10  2010 CA           CA    Alameda    County Health Status Over… How is … Excelle…
    ## # … with 286 more rows, and 16 more variables: sample_size <int>,
    ## #   data_value <dbl>, confidence_limit_low <dbl>, confidence_limit_high <dbl>,
    ## #   display_order <int>, data_value_unit <chr>, data_value_type <chr>,
    ## #   data_value_footnote_symbol <chr>, data_value_footnote <chr>,
    ## #   data_source <chr>, class_id <chr>, topic_id <chr>, location_id <chr>,
    ## #   question_id <chr>, respid <chr>, geo_location <chr>
…
There does not appear to be a major pattern to the physical exercise
values across the course of the week. Although, the weekend Saturday
especially appears to have a lower mean physical activity measure than
the other dats, which may indicate that this day is more relaxed and or
the individual was less likely to be wearing his exercise band.

#### Single-panel plot 24hour time period

``` r
accel_data 
```

    ## # A tibble: 35 × 1,444
    ##     week day_id day       minute_1 minute_2 minute_3 minute_4 minute_5 minute_6
    ##    <dbl>  <dbl> <chr>        <dbl>    <dbl>    <dbl>    <dbl>    <dbl>    <dbl>
    ##  1     1      1 Friday        88.4     82.2     64.4     70.0     75.0     66.3
    ##  2     1      2 Monday         1        1        1        1        1        1  
    ##  3     1      3 Saturday       1        1        1        1        1        1  
    ##  4     1      4 Sunday         1        1        1        1        1        1  
    ##  5     1      5 Thursday      47.4     48.8     46.9     35.8     49.0     44.8
    ##  6     1      6 Tuesday       64.8     59.5     73.7     45.7     42.4     58.4
    ##  7     1      7 Wednesday     71.1    103.      68.5     45.4     37.8     18.3
    ##  8     2      8 Friday       675      542     1010      779      509      106  
    ##  9     2      9 Monday       291      335      393      335      263      675  
    ## 10     2     10 Saturday      64       11        1        1        1        1  
    ## # … with 25 more rows, and 1,435 more variables: minute_7 <dbl>,
    ## #   minute_8 <dbl>, minute_9 <dbl>, minute_10 <dbl>, minute_11 <dbl>,
    ## #   minute_12 <dbl>, minute_13 <dbl>, minute_14 <dbl>, minute_15 <dbl>,
    ## #   minute_16 <dbl>, minute_17 <dbl>, minute_18 <dbl>, minute_19 <dbl>,
    ## #   minute_20 <dbl>, minute_21 <dbl>, minute_22 <dbl>, minute_23 <dbl>,
    ## #   minute_24 <dbl>, minute_25 <dbl>, minute_26 <dbl>, minute_27 <dbl>,
    ## #   minute_28 <dbl>, minute_29 <dbl>, minute_30 <dbl>, minute_31 <dbl>, …
